24 Mince     Ghost HW: 77 85 64 84 95 Q: 86 90 92 T: 95 83 FE: 88 
15 Silent    Ninja HW: 65 98 95 86 85 Q: 82 92 95 T: 75 70 FE: 90
3  Occipital Lobe  HW: 52 99 67 84 72 Q: 90 98 95 T: 65 82 FE: 75
10 Jacs      Nuero HW: 65 98 78 75 80 Q: 75 78 88 T: 75 84 FE: 95
5  Milo      Gidus HW: 78 54 82 92 65 Q: 58 87 74 T: 88 68 FE: 100
