24 Ghost Mince HWA=77.5 QA=58.6667 TA= 47.5 FE= FE:
15 Ninja Silent HWA=86 QA=58 TA= 37.5 FE= FE:
3 Lobe Occipital HWA=75.5 QA=62.6667 TA= 32.5 FE= FE:
10 Nuero Jacs HWA=79 QA=51 TA= 37.5 FE= FE:
5 Gidus Milo HWA=76.5 QA=48.3333 TA= 44 FE= FE:
